^C:\USERS\LUKASZ\CLIONPROJECTS\MATH2\TEST_PACKAGE\CMAKELISTS.TXT
C:\PROGRAM FILES\CMAKE\SHARE\CMAKE-3.26\MODULES\CMAKECXXCOMPILER.CMAKE.IN
C:\PROGRAM FILES\CMAKE\SHARE\CMAKE-3.26\MODULES\CMAKECXXCOMPILERABI.CPP
C:\PROGRAM FILES\CMAKE\SHARE\CMAKE-3.26\MODULES\CMAKECXXINFORMATION.CMAKE
C:\PROGRAM FILES\CMAKE\SHARE\CMAKE-3.26\MODULES\CMAKECOMMONLANGUAGEINCLUDE.CMAKE
C:\PROGRAM FILES\CMAKE\SHARE\CMAKE-3.26\MODULES\CMAKECOMPILERIDDETECTION.CMAKE
C:\PROGRAM FILES\CMAKE\SHARE\CMAKE-3.26\MODULES\CMAKEDETERMINECXXCOMPILER.CMAKE
C:\PROGRAM FILES\CMAKE\SHARE\CMAKE-3.26\MODULES\CMAKEDETERMINECOMPILEFEATURES.CMAKE
C:\PROGRAM FILES\CMAKE\SHARE\CMAKE-3.26\MODULES\CMAKEDETERMINECOMPILER.CMAKE
C:\PROGRAM FILES\CMAKE\SHARE\CMAKE-3.26\MODULES\CMAKEDETERMINECOMPILERABI.CMAKE
C:\PROGRAM FILES\CMAKE\SHARE\CMAKE-3.26\MODULES\CMAKEDETERMINECOMPILERID.CMAKE
C:\PROGRAM FILES\CMAKE\SHARE\CMAKE-3.26\MODULES\CMAKEDETERMINERCCOMPILER.CMAKE
C:\PROGRAM FILES\CMAKE\SHARE\CMAKE-3.26\MODULES\CMAKEDETERMINESYSTEM.CMAKE
C:\PROGRAM FILES\CMAKE\SHARE\CMAKE-3.26\MODULES\CMAKEFINDBINUTILS.CMAKE
C:\PROGRAM FILES\CMAKE\SHARE\CMAKE-3.26\MODULES\CMAKEFINDDEPENDENCYMACRO.CMAKE
C:\PROGRAM FILES\CMAKE\SHARE\CMAKE-3.26\MODULES\CMAKEGENERICSYSTEM.CMAKE
C:\PROGRAM FILES\CMAKE\SHARE\CMAKE-3.26\MODULES\CMAKEINITIALIZECONFIGS.CMAKE
C:\PROGRAM FILES\CMAKE\SHARE\CMAKE-3.26\MODULES\CMAKELANGUAGEINFORMATION.CMAKE
C:\PROGRAM FILES\CMAKE\SHARE\CMAKE-3.26\MODULES\CMAKEPARSEIMPLICITINCLUDEINFO.CMAKE
C:\PROGRAM FILES\CMAKE\SHARE\CMAKE-3.26\MODULES\CMAKEPARSEIMPLICITLINKINFO.CMAKE
C:\PROGRAM FILES\CMAKE\SHARE\CMAKE-3.26\MODULES\CMAKEPARSELIBRARYARCHITECTURE.CMAKE
C:\PROGRAM FILES\CMAKE\SHARE\CMAKE-3.26\MODULES\CMAKERCCOMPILER.CMAKE.IN
C:\PROGRAM FILES\CMAKE\SHARE\CMAKE-3.26\MODULES\CMAKERCINFORMATION.CMAKE
C:\PROGRAM FILES\CMAKE\SHARE\CMAKE-3.26\MODULES\CMAKESYSTEM.CMAKE.IN
C:\PROGRAM FILES\CMAKE\SHARE\CMAKE-3.26\MODULES\CMAKESYSTEMSPECIFICINFORMATION.CMAKE
C:\PROGRAM FILES\CMAKE\SHARE\CMAKE-3.26\MODULES\CMAKESYSTEMSPECIFICINITIALIZE.CMAKE
C:\PROGRAM FILES\CMAKE\SHARE\CMAKE-3.26\MODULES\CMAKETESTCXXCOMPILER.CMAKE
C:\PROGRAM FILES\CMAKE\SHARE\CMAKE-3.26\MODULES\CMAKETESTCOMPILERCOMMON.CMAKE
C:\PROGRAM FILES\CMAKE\SHARE\CMAKE-3.26\MODULES\CMAKETESTRCCOMPILER.CMAKE
C:\PROGRAM FILES\CMAKE\SHARE\CMAKE-3.26\MODULES\COMPILER\ADSP-DETERMINECOMPILER.CMAKE
C:\PROGRAM FILES\CMAKE\SHARE\CMAKE-3.26\MODULES\COMPILER\ARMCC-DETERMINECOMPILER.CMAKE
C:\PROGRAM FILES\CMAKE\SHARE\CMAKE-3.26\MODULES\COMPILER\ARMCLANG-DETERMINECOMPILER.CMAKE
C:\PROGRAM FILES\CMAKE\SHARE\CMAKE-3.26\MODULES\COMPILER\APPLECLANG-DETERMINECOMPILER.CMAKE
C:\PROGRAM FILES\CMAKE\SHARE\CMAKE-3.26\MODULES\COMPILER\BORLAND-DETERMINECOMPILER.CMAKE
C:\PROGRAM FILES\CMAKE\SHARE\CMAKE-3.26\MODULES\COMPILER\CMAKECOMMONCOMPILERMACROS.CMAKE
C:\PROGRAM FILES\CMAKE\SHARE\CMAKE-3.26\MODULES\COMPILER\CLANG-DETERMINECOMPILER.CMAKE
C:\PROGRAM FILES\CMAKE\SHARE\CMAKE-3.26\MODULES\COMPILER\CLANG-DETERMINECOMPILERINTERNAL.CMAKE
C:\PROGRAM FILES\CMAKE\SHARE\CMAKE-3.26\MODULES\COMPILER\COMEAU-CXX-DETERMINECOMPILER.CMAKE
C:\PROGRAM FILES\CMAKE\SHARE\CMAKE-3.26\MODULES\COMPILER\COMPAQ-CXX-DETERMINECOMPILER.CMAKE
C:\PROGRAM FILES\CMAKE\SHARE\CMAKE-3.26\MODULES\COMPILER\CRAY-DETERMINECOMPILER.CMAKE
C:\PROGRAM FILES\CMAKE\SHARE\CMAKE-3.26\MODULES\COMPILER\EMBARCADERO-DETERMINECOMPILER.CMAKE
C:\PROGRAM FILES\CMAKE\SHARE\CMAKE-3.26\MODULES\COMPILER\FUJITSU-DETERMINECOMPILER.CMAKE
C:\PROGRAM FILES\CMAKE\SHARE\CMAKE-3.26\MODULES\COMPILER\FUJITSUCLANG-DETERMINECOMPILER.CMAKE
C:\PROGRAM FILES\CMAKE\SHARE\CMAKE-3.26\MODULES\COMPILER\GHS-DETERMINECOMPILER.CMAKE
C:\PROGRAM FILES\CMAKE\SHARE\CMAKE-3.26\MODULES\COMPILER\GNU-CXX-DETERMINECOMPILER.CMAKE
C:\PROGRAM FILES\CMAKE\SHARE\CMAKE-3.26\MODULES\COMPILER\HP-CXX-DETERMINECOMPILER.CMAKE
C:\PROGRAM FILES\CMAKE\SHARE\CMAKE-3.26\MODULES\COMPILER\IAR-DETERMINECOMPILER.CMAKE
C:\PROGRAM FILES\CMAKE\SHARE\CMAKE-3.26\MODULES\COMPILER\IBMCPP-CXX-DETERMINEVERSIONINTERNAL.CMAKE
C:\PROGRAM FILES\CMAKE\SHARE\CMAKE-3.26\MODULES\COMPILER\IBMCLANG-CXX-DETERMINECOMPILER.CMAKE
C:\PROGRAM FILES\CMAKE\SHARE\CMAKE-3.26\MODULES\COMPILER\INTEL-DETERMINECOMPILER.CMAKE
C:\PROGRAM FILES\CMAKE\SHARE\CMAKE-3.26\MODULES\COMPILER\INTELLLVM-DETERMINECOMPILER.CMAKE
C:\PROGRAM FILES\CMAKE\SHARE\CMAKE-3.26\MODULES\COMPILER\LCC-CXX-DETERMINECOMPILER.CMAKE
C:\PROGRAM FILES\CMAKE\SHARE\CMAKE-3.26\MODULES\COMPILER\MSVC-CXX.CMAKE
C:\PROGRAM FILES\CMAKE\SHARE\CMAKE-3.26\MODULES\COMPILER\MSVC-DETERMINECOMPILER.CMAKE
C:\PROGRAM FILES\CMAKE\SHARE\CMAKE-3.26\MODULES\COMPILER\MSVC.CMAKE
C:\PROGRAM FILES\CMAKE\SHARE\CMAKE-3.26\MODULES\COMPILER\NVHPC-DETERMINECOMPILER.CMAKE
C:\PROGRAM FILES\CMAKE\SHARE\CMAKE-3.26\MODULES\COMPILER\NVIDIA-DETERMINECOMPILER.CMAKE
C:\PROGRAM FILES\CMAKE\SHARE\CMAKE-3.26\MODULES\COMPILER\OPENWATCOM-DETERMINECOMPILER.CMAKE
C:\PROGRAM FILES\CMAKE\SHARE\CMAKE-3.26\MODULES\COMPILER\PGI-DETERMINECOMPILER.CMAKE
C:\PROGRAM FILES\CMAKE\SHARE\CMAKE-3.26\MODULES\COMPILER\PATHSCALE-DETERMINECOMPILER.CMAKE
C:\PROGRAM FILES\CMAKE\SHARE\CMAKE-3.26\MODULES\COMPILER\SCO-DETERMINECOMPILER.CMAKE
C:\PROGRAM FILES\CMAKE\SHARE\CMAKE-3.26\MODULES\COMPILER\SUNPRO-CXX-DETERMINECOMPILER.CMAKE
C:\PROGRAM FILES\CMAKE\SHARE\CMAKE-3.26\MODULES\COMPILER\TI-DETERMINECOMPILER.CMAKE
C:\PROGRAM FILES\CMAKE\SHARE\CMAKE-3.26\MODULES\COMPILER\TASKING-DETERMINECOMPILER.CMAKE
C:\PROGRAM FILES\CMAKE\SHARE\CMAKE-3.26\MODULES\COMPILER\VISUALAGE-CXX-DETERMINECOMPILER.CMAKE
C:\PROGRAM FILES\CMAKE\SHARE\CMAKE-3.26\MODULES\COMPILER\WATCOM-DETERMINECOMPILER.CMAKE
C:\PROGRAM FILES\CMAKE\SHARE\CMAKE-3.26\MODULES\COMPILER\XL-CXX-DETERMINECOMPILER.CMAKE
C:\PROGRAM FILES\CMAKE\SHARE\CMAKE-3.26\MODULES\COMPILER\XLCLANG-CXX-DETERMINECOMPILER.CMAKE
C:\PROGRAM FILES\CMAKE\SHARE\CMAKE-3.26\MODULES\COMPILER\ZOS-CXX-DETERMINECOMPILER.CMAKE
C:\PROGRAM FILES\CMAKE\SHARE\CMAKE-3.26\MODULES\COMPILERID\VS-10.VCXPROJ.IN
C:\PROGRAM FILES\CMAKE\SHARE\CMAKE-3.26\MODULES\INTERNAL\FEATURETESTING.CMAKE
C:\PROGRAM FILES\CMAKE\SHARE\CMAKE-3.26\MODULES\PLATFORM\WINDOWS-DETERMINE-CXX.CMAKE
C:\PROGRAM FILES\CMAKE\SHARE\CMAKE-3.26\MODULES\PLATFORM\WINDOWS-MSVC-CXX.CMAKE
C:\PROGRAM FILES\CMAKE\SHARE\CMAKE-3.26\MODULES\PLATFORM\WINDOWS-MSVC.CMAKE
C:\PROGRAM FILES\CMAKE\SHARE\CMAKE-3.26\MODULES\PLATFORM\WINDOWS.CMAKE
C:\PROGRAM FILES\CMAKE\SHARE\CMAKE-3.26\MODULES\PLATFORM\WINDOWSPATHS.CMAKE
C:\USERS\LUKASZ\CLIONPROJECTS\MATH2\TEST_PACKAGE\BUILD\CMAKEFILES\3.26.0-RC6\CMAKECXXCOMPILER.CMAKE
C:\USERS\LUKASZ\CLIONPROJECTS\MATH2\TEST_PACKAGE\BUILD\CMAKEFILES\3.26.0-RC6\CMAKERCCOMPILER.CMAKE
C:\USERS\LUKASZ\CLIONPROJECTS\MATH2\TEST_PACKAGE\BUILD\CMAKEFILES\3.26.0-RC6\CMAKESYSTEM.CMAKE
C:\USERS\LUKASZ\CLIONPROJECTS\MATH2\TEST_PACKAGE\BUILD\GENERATORS\CMAKEDEPS_MACROS.CMAKE
C:\USERS\LUKASZ\CLIONPROJECTS\MATH2\TEST_PACKAGE\BUILD\GENERATORS\CONAN_TOOLCHAIN.CMAKE
C:\USERS\LUKASZ\CLIONPROJECTS\MATH2\TEST_PACKAGE\BUILD\GENERATORS\MATHPACK-TARGET-RELEASE.CMAKE
C:\USERS\LUKASZ\CLIONPROJECTS\MATH2\TEST_PACKAGE\BUILD\GENERATORS\MATHPACK-CONFIG-VERSION.CMAKE
C:\USERS\LUKASZ\CLIONPROJECTS\MATH2\TEST_PACKAGE\BUILD\GENERATORS\MATHPACK-CONFIG.CMAKE
C:\USERS\LUKASZ\CLIONPROJECTS\MATH2\TEST_PACKAGE\BUILD\GENERATORS\MATHPACK-RELEASE-X86_64-DATA.CMAKE
C:\USERS\LUKASZ\CLIONPROJECTS\MATH2\TEST_PACKAGE\BUILD\GENERATORS\MATHPACKTARGETS.CMAKE
